{
  "page": 1,
  "total_results": 19838,
  "total_pages": 992,
  "results": [{
    "vote_count": 5260,
    "id": 299534,
    "video": false,
    "vote_average": 8.5,
    "title": "Avengers: Endgame",
    "popularity": 290.05,
    "poster_path": "\/or06FN3Dka5tukK1e9sl16pB3iy.jpg",
    "original_language": "en",
    "original_title": "Avengers: Endgame",
    "genre_ids": [12, 878, 28],
    "backdrop_path": "\/7RyHsO4yDXtBv1zUU3mTpHeQ0d5.jpg",
    "adult": false,
    "overview": "After the devastating events of Avengers: Infinity War, the universe is in ruins due to the efforts of the Mad Titan, Thanos. With the help of remaining allies, the Avengers must assemble once more in order to undo Thanos' actions and restore order to the universe once and for all, no matter what consequences may be in store.",
    "release_date": "2019-04-24"
  }, {
    "vote_count": 1538,
    "id": 287947,
    "video": false,
    "vote_average": 7.1,
    "title": "Shazam!",
    "popularity": 259.332,
    "poster_path": "\/xnopI5Xtky18MPhK40cZAGAOVeV.jpg",
    "original_language": "en",
    "original_title": "Shazam!",
    "genre_ids": [35, 12, 14, 28],
    "backdrop_path": "\/bi4jh0Kt0uuZGsGJoUUfqmbrjQg.jpg",
    "adult": false,
    "overview": "A boy is given the ability to become an adult superhero in times of need with a single magic word.",
    "release_date": "2019-03-23"
  }, {
    "vote_count": 14,
    "id": 543103,
    "video": false,
    "vote_average": 5.3,
    "title": "Kamen Rider Heisei Generations FOREVER",
    "popularity": 235.561,
    "poster_path": "\/6sOFQDlkY6El1B2P5gklzJfVdsT.jpg",
    "original_language": "ja",
    "original_title": "仮面ライダー平成ジェネレーションズFOREVER",
    "genre_ids": [28, 12, 878],
    "backdrop_path": "\/uufTqD2CSn1NqL3cXEl4Vp3bCav.jpg",
    "adult": false,
    "overview": "In the world of Sougo Tokiwa and Sento Kiryu, their \"companions\" are losing their memories one after the other as they're replaced by other people. The Super Time Jacker, Tid , appears before them. He orders his powerful underlings, Another Double and Another Den-O, to pursue a young boy called Shingo. While fighting to protect Shingo, Sougo meets Ataru, a young man who loves Riders, but Ataru says that Kamen Riders aren't real. What is the meaning of those words? While the mystery deepens, the true enemy that Sougo and Sento must defeat appears in the Kuriogatake mountain...",
    "release_date": "2018-12-22"
  }, {
    "vote_count": 389,
    "id": 447404,
    "video": false,
    "vote_average": 7,
    "title": "Pokémon Detective Pikachu",
    "popularity": 213.352,
    "poster_path": "\/wgQ7APnFpf1TuviKHXeEe3KnsTV.jpg",
    "original_language": "en",
    "original_title": "Pokémon Detective Pikachu",
    "genre_ids": [9648, 10751, 80, 14, 35, 878],
    "backdrop_path": "\/nDP33LmQwNsnPv29GQazz59HjJI.jpg",
    "adult": false,
    "overview": "In a world where people collect pocket-size monsters (Pokémon) to do battle, a boy comes across an intelligent monster who seeks to be a detective.",
    "release_date": "2019-05-03"
  }, {
    "vote_count": 4836,
    "id": 299537,
    "video": false,
    "vote_average": 7.1,
    "title": "Captain Marvel",
    "popularity": 170.297,
    "poster_path": "\/AtsgWhDnHTq68L0lLsUrCnM7TjG.jpg",
    "original_language": "en",
    "original_title": "Captain Marvel",
    "genre_ids": [28, 12, 878],
    "backdrop_path": "\/w2PMyoyLU22YvrGK3smVM9fW1jj.jpg",
    "adult": false,
    "overview": "The story follows Carol Danvers as she becomes one of the universe’s most powerful heroes when Earth is caught in the middle of a galactic war between two alien races. Set in the 1990s, Captain Marvel is an all-new adventure from a previously unseen period in the history of the Marvel Cinematic Universe.",
    "release_date": "2019-03-06"
  }, {
    "vote_count": 4,
    "id": 531309,
    "video": false,
    "vote_average": 6.5,
    "title": "Brightburn",
    "popularity": 137.601,
    "poster_path": "\/roslEbKdY0WSgYaB5KXvPKY0bXS.jpg",
    "original_language": "en",
    "original_title": "Brightburn",
    "genre_ids": [27, 878, 18, 53],
    "backdrop_path": "\/uHEI6v8ApQusjbaRZ8o7WcLYeWb.jpg",
    "adult": false,
    "overview": "What if a child from another world crash-landed on Earth, but instead of becoming a hero to mankind, he proved to be something far more sinister?",
    "release_date": "2019-05-10"
  }, {
    "vote_count": 13494,
    "id": 299536,
    "video": false,
    "vote_average": 8.3,
    "title": "Avengers: Infinity War",
    "popularity": 124.512,
    "poster_path": "\/7WsyChQLEftFiDOVTGkv3hFpyyt.jpg",
    "original_language": "en",
    "original_title": "Avengers: Infinity War",
    "genre_ids": [12, 28, 14],
    "backdrop_path": "\/bOGkgRGdhrBYJSLpXaxhXVstddV.jpg",
    "adult": false,
    "overview": "As the Avengers and their allies have continued to protect the world from threats too large for any one hero to handle, a new danger has emerged from the cosmic shadows: Thanos. A despot of intergalactic infamy, his goal is to collect all six Infinity Stones, artifacts of unimaginable power, and use them to inflict his twisted will on all of reality. Everything the Avengers have fought for has led up to this moment - the fate of Earth and existence itself has never been more uncertain.",
    "release_date": "2018-04-25"
  }, {
    "vote_count": 499,
    "id": 438650,
    "video": false,
    "vote_average": 5.2,
    "title": "Cold Pursuit",
    "popularity": 120.336,
    "poster_path": "\/otK0H9H1w3JVGJjad5Kzx3Z9kt2.jpg",
    "original_language": "en",
    "original_title": "Cold Pursuit",
    "genre_ids": [28, 18, 53, 80, 35],
    "backdrop_path": "\/aiM3XxYE2JvW1vJ4AC6cI1RjAoT.jpg",
    "adult": false,
    "overview": "Nels Coxman, a snowplow driver recently awarded the title of citizen of the year, triggers a series of violence and misunderstandings between two rival gangs after he starts avenging his son's death.",
    "release_date": "2019-02-07"
  }, {
    "vote_count": 19,
    "id": 495925,
    "video": false,
    "vote_average": 5.6,
    "title": "Doraemon the Movie: Nobita's Treasure Island",
    "popularity": 114.506,
    "poster_path": "\/cmJ71gdZxCqkMUvGwWgSg3MK7pC.jpg",
    "original_language": "ja",
    "original_title": "映画ドラえもん のび太の宝島",
    "genre_ids": [16],
    "backdrop_path": "\/8OamoIWfC9zmhwhh1PPaBcDoQaH.jpg",
    "adult": false,
    "overview": "The story is based on Robert Louis Stevenson's Treasure Island novel.",
    "release_date": "2018-03-03"
  }, {
    "vote_count": 366,
    "id": 456740,
    "video": false,
    "vote_average": 5.1,
    "title": "Hellboy",
    "popularity": 108.288,
    "poster_path": "\/bk8LyaMqUtaQ9hUShuvFznQYQKR.jpg",
    "original_language": "en",
    "original_title": "Hellboy",
    "genre_ids": [28, 12, 14],
    "backdrop_path": "\/5BkSkNtfrnTuKOtTaZhl8avn4wU.jpg",
    "adult": false,
    "overview": "Hellboy comes to England, where he must defeat Nimue, Merlin's consort and the Blood Queen. But their battle will bring about the end of the world, a fate he desperately tries to turn away.",
    "release_date": "2019-04-10"
  }, {
    "vote_count": 12,
    "id": 458156,
    "video": false,
    "vote_average": 7,
    "title": "John Wick: Chapter 3 – Parabellum",
    "popularity": 107.551,
    "poster_path": "\/ziEuG1essDuWuC5lpWUaw1uXY2O.jpg",
    "original_language": "en",
    "original_title": "John Wick: Chapter 3 – Parabellum",
    "genre_ids": [80, 28, 53],
    "backdrop_path": "\/jEjyjX4izUucoq7A9jmbcT6q3e1.jpg",
    "adult": false,
    "overview": "John Wick is on the run for two reasons… he’s being hunted for a global $14 million dollar open contract on his life, and for breaking a central rule: taking a life on Continental Hotel grounds. The victim was a member of the High Table who ordered the open contract. John should have already been executed, except the Continental’s manager, Winston, has given him a one-hour grace period before he’s “Excommunicado” – membership revoked, banned from all services and cut off from other members. John uses the service industry to stay alive as he fights and kills his way out of New York City.",
    "release_date": "2019-05-15"
  }, {
    "vote_count": 490,
    "id": 157433,
    "video": false,
    "vote_average": 6,
    "title": "Pet Sematary",
    "popularity": 105.494,
    "poster_path": "\/7SPhr7Qj39vbnfF9O2qHRYaKHAL.jpg",
    "original_language": "en",
    "original_title": "Pet Sematary",
    "genre_ids": [53, 9648, 27],
    "backdrop_path": "\/dpJq6trUDOutSPSLrFdROPmzaVn.jpg",
    "adult": false,
    "overview": "Louis Creed, his wife Rachel and their two children Gage and Ellie move to a rural home where they are welcomed and enlightened about the eerie 'Pet Sematary' located nearby. After the tragedy of their cat being killed by a truck, Louis resorts to burying it in the mysterious pet cemetery, which is definitely not as it seems, as it proves to the Creeds that sometimes dead is better.",
    "release_date": "2019-04-04"
  }, {
    "vote_count": 22,
    "id": 576393,
    "video": false,
    "vote_average": 6,
    "title": "Fall in Love at First Kiss",
    "popularity": 100.645,
    "poster_path": "\/wtaSH8MfJSCEIrrEX9SQuHdU5sl.jpg",
    "original_language": "zh",
    "original_title": "一吻定情",
    "genre_ids": [10749, 35],
    "backdrop_path": "\/yY7kr7Rgvo8W0Kr3U0bMV8Zq1qM.jpg",
    "adult": false,
    "overview": "After an earthquake destroys Xiang Qin's house, she and her father move in with the family of her father's college buddy. To her surprise, her new kind and amicable aunt and uncle are the parents of her cold and distant schoolmate, Jiang Zhi Shu, a genius with an IQ of 200 whom not too long ago rejected her when she confessed her feelings for him. Will the close proximity give her a second chance to win Zhi Shu's heart? Or will her love for him end under his cold words?",
    "release_date": "2019-02-14"
  }, {
    "vote_count": 2777,
    "id": 450465,
    "video": false,
    "vote_average": 6.5,
    "title": "Glass",
    "popularity": 99.183,
    "poster_path": "\/svIDTNUoajS8dLEo7EosxvyAsgJ.jpg",
    "original_language": "en",
    "original_title": "Glass",
    "genre_ids": [53, 9648, 18, 14, 878],
    "backdrop_path": "\/lvjscO8wmpEbIfOEZi92Je8Ktlg.jpg",
    "adult": false,
    "overview": "In a series of escalating encounters, security guard David Dunn uses his supernatural abilities to track Kevin Wendell Crumb, a disturbed man who has twenty-four personalities. Meanwhile, the shadowy presence of Elijah Price emerges as an orchestrator who holds secrets critical to both men.",
    "release_date": "2019-01-16"
  }, {
    "vote_count": 19356,
    "id": 24428,
    "video": false,
    "vote_average": 7.6,
    "title": "The Avengers",
    "popularity": 99.052,
    "poster_path": "\/cezWGskPY5x7GaglTTRN4Fugfb8.jpg",
    "original_language": "en",
    "original_title": "The Avengers",
    "genre_ids": [878, 28, 12],
    "backdrop_path": "\/hbn46fQaRmlpBuUrEiFqv0GDL6Y.jpg",
    "adult": false,
    "overview": "When an unexpected enemy emerges and threatens global safety and security, Nick Fury, director of the international peacekeeping agency known as S.H.I.E.L.D., finds himself in need of a team to pull the world back from the brink of disaster. Spanning the globe, a daring recruitment effort begins!",
    "release_date": "2012-04-25"
  }, {
    "vote_count": 879,
    "id": 537915,
    "video": false,
    "vote_average": 6,
    "title": "After",
    "popularity": 90.3,
    "poster_path": "\/u3B2YKUjWABcxXZ6Nm9h10hLUbh.jpg",
    "original_language": "en",
    "original_title": "After",
    "genre_ids": [18, 10749],
    "backdrop_path": "\/997ToEZvF2Obp9zNZbY5ELVnmrW.jpg",
    "adult": false,
    "overview": "A young woman falls for a guy with a dark secret and the two embark on a rocky relationship.",
    "release_date": "2019-04-11"
  }, {
    "vote_count": 412,
    "id": 457799,
    "video": false,
    "vote_average": 7,
    "title": "Extremely Wicked, Shockingly Evil and Vile",
    "popularity": 83.054,
    "poster_path": "\/zSuJ3r5zr5T26tTxyygHhgkUAIM.jpg",
    "original_language": "en",
    "original_title": "Extremely Wicked, Shockingly Evil and Vile",
    "genre_ids": [53, 80, 18, 36],
    "backdrop_path": "\/5yXNf13ly6kFQSbI5BZRQlDhCib.jpg",
    "adult": false,
    "overview": "A chronicle of the crimes of Ted Bundy, from the perspective of his longtime girlfriend, Elizabeth Kloepfer, who refused to believe the truth about him for years.",
    "release_date": "2019-05-02"
  }, {
    "vote_count": 12057,
    "id": 284054,
    "video": false,
    "vote_average": 7.4,
    "title": "Black Panther",
    "popularity": 82.816,
    "poster_path": "\/uxzzxijgPIY7slzFvMotPv8wjKA.jpg",
    "original_language": "en",
    "original_title": "Black Panther",
    "genre_ids": [28, 12, 14, 878],
    "backdrop_path": "\/6ELJEzQJ3Y45HczvreC3dg0GV5R.jpg",
    "adult": false,
    "overview": "King T'Challa returns home from America to the reclusive, technologically advanced African nation of Wakanda to serve as his country's new leader. However, T'Challa soon finds that he is challenged for the throne by factions within his own country as well as without. Using powers reserved to Wakandan kings, T'Challa assumes the Black Panther mantel to join with girlfriend Nakia, the queen-mother, his princess-kid sister, members of the Dora Milaje (the Wakandan 'special forces') and an American secret agent, to prevent Wakanda from being dragged into a world war.",
    "release_date": "2018-02-13"
  }, {
    "vote_count": 33,
    "id": 449562,
    "video": false,
    "vote_average": 6.2,
    "title": "The Hustle",
    "popularity": 78.652,
    "poster_path": "\/qibqW5Dnvqp4hcEnoTARbQgxwJy.jpg",
    "original_language": "en",
    "original_title": "The Hustle",
    "genre_ids": [35],
    "backdrop_path": "\/s6awXOxTKYQLSktiIJfI3969dZH.jpg",
    "adult": false,
    "overview": "Two female scam artists, one low rent and the other high class, compete to swindle a naïve tech prodigy out of his fortune. A remake of the 1988 comedy \"Dirty Rotten Scoundrels.\"",
    "release_date": "2019-05-09"
  }, {
    "vote_count": 11149,
    "id": 284053,
    "video": false,
    "vote_average": 7.5,
    "title": "Thor: Ragnarok",
    "popularity": 77.719,
    "poster_path": "\/rzRwTcFvttcN1ZpX2xv4j3tSdJu.jpg",
    "original_language": "en",
    "original_title": "Thor: Ragnarok",
    "genre_ids": [28, 12, 35, 14],
    "backdrop_path": "\/kaIfm5ryEOwYg8mLbq8HkPuM1Fo.jpg",
    "adult": false,
    "overview": "Thor is imprisoned on the other side of the universe and finds himself in a race against time to get back to Asgard to stop Ragnarok, the destruction of his home-world and the end of Asgardian civilization, at the hands of an all-powerful new threat, the ruthless Hela.",
    "release_date": "2017-10-25"
  }]
}
